{
	"projectPath": "/Users/sam/Desktop/Clade/project-code/clade",
	"projectInfo": {
		"ProjectName": "clade",
		"ProjectPath": "/Users/sam/Desktop/Clade/project-code/clade",
		"InitializationTime": "",
		"LastConfigurationTime": "",
		"LastNPMInstallTime": "",
		"FrontendLastBuildTime": "",
		"LastPublishTime": "",
		"BackendLastSyncTime": "",
		"BackendLastBuildTime": "",
		"BackendLastPushTime": "",
		"BackendProjectID": "",
		"BackendProjectName": "",
		"BackendProjectConsoleUrl": "",
		"BackendProjectCreationTime": "",
		"BackendProjectLastUpdatedTime": "",
		"Framework": "react-native"
	},
	"packageJson": {
		"name": "clade",
		"version": "0.0.1",
		"private": true,
		"scripts": {
			"android": "react-native run-android",
			"ios": "react-native run-ios",
			"start": "react-native start",
			"test": "jest",
			"lint": "eslint ."
		},
		"dependencies": {
			"ad-b2c-react-native": "^1.1.5",
			"aws-amplify": "^3.3.10",
			"axios": "^0.21.0",
			"react": "16.13.1",
			"react-native": "0.63.3",
			"react-native-chartjs": "^1.0.3",
			"react-native-gesture-handler": "^1.8.0",
			"react-native-reanimated": "^1.13.2",
			"react-native-router-flux": "^4.2.0",
			"react-native-screens": "^2.15.0",
			"react-native-svg": "^12.1.0",
			"react-native-vector-icons": "^7.1.0",
			"victory-native": "^35.3.1"
		},
		"devDependencies": {
			"@babel/core": "^7.8.4",
			"@babel/runtime": "^7.8.4",
			"@react-native-community/eslint-config": "^1.1.0",
			"babel-jest": "^25.1.0",
			"eslint": "^6.5.1",
			"jest": "^25.1.0",
			"metro-react-native-babel-preset": "^0.59.0",
			"react-test-renderer": "16.13.1",
			"reactotron-react-native": "^5.0.0"
		},
		"jest": {
			"preset": "react-native"
		}
	},
	"framework": "react-native",
	"initialStage": "clean-slate",
	"strategy": "create"
}